<svg width="580" height="586" viewBox="0 0 580 586" fill="none" xmlns="http://www.w3.org/2000/svg">
<g opacity="0.3">
<circle opacity="0.3" cx="262.729" cy="262.729" r="262.229" stroke="#D9D9D9"/>
<circle opacity="0.3" cx="303.303" cy="309.289" r="276.197" stroke="#D9D9D9"/>
<circle opacity="0.3" cx="346.204" cy="276.365" r="226.644" stroke="#D9D9D9"/>
</g>
</svg>
