<svg width="40" height="40" viewBox="0 0 40 40" fill="none" xmlns="http://www.w3.org/2000/svg">
<path d="M31.8272 7.00032C31.5247 7.00746 31.2373 7.13402 31.0277 7.35235L19.9999 18.3801L8.97214 7.35235C8.86536 7.24238 8.7376 7.15496 8.59642 7.09526C8.45524 7.03556 8.30352 7.0048 8.15024 7.00479C7.92225 7.00485 7.69947 7.07293 7.51038 7.20031C7.3213 7.32769 7.17452 7.50859 7.08883 7.71986C7.00314 7.93114 6.98242 8.16317 7.02934 8.38628C7.07626 8.60939 7.18868 8.81342 7.35221 8.97228L18.38 20.0001L7.35221 31.0279C7.24226 31.1334 7.15449 31.2599 7.09402 31.3998C7.03355 31.5397 7.00161 31.6902 7.00006 31.8426C6.99851 31.9951 7.02739 32.1462 7.085 32.2873C7.14261 32.4285 7.22779 32.5567 7.33557 32.6644C7.44334 32.7722 7.57154 32.8574 7.71265 32.915C7.85376 32.9726 8.00494 33.0015 8.15735 32.9999C8.30976 32.9984 8.46033 32.9664 8.60024 32.906C8.74014 32.8455 8.86658 32.7577 8.97214 32.6478L19.9999 21.62L31.0277 32.6478C31.1333 32.7577 31.2597 32.8455 31.3996 32.906C31.5395 32.9664 31.6901 32.9984 31.8425 32.9999C31.9949 33.0015 32.1461 32.9726 32.2872 32.915C32.4283 32.8574 32.5565 32.7722 32.6643 32.6644C32.7721 32.5567 32.8572 32.4285 32.9149 32.2873C32.9725 32.1462 33.0013 31.9951 32.9998 31.8426C32.9982 31.6902 32.9663 31.5397 32.9058 31.3998C32.8454 31.2599 32.7576 31.1334 32.6476 31.0279L21.6199 20.0001L32.6476 8.97228C32.8142 8.81239 32.9286 8.60589 32.9758 8.37986C33.023 8.15383 33.0008 7.91881 32.9121 7.70562C32.8234 7.49242 32.6724 7.31101 32.4788 7.18515C32.2852 7.05929 32.0581 6.99487 31.8272 7.00032Z" fill="white"/>
</svg>
