<svg width="40" height="40" viewBox="0 0 40 40" fill="none" xmlns="http://www.w3.org/2000/svg">
<path d="M30.0077 9.00027C29.7517 9.00632 29.5085 9.1134 29.3311 9.29814L19.9999 18.6293L10.6687 9.29814C10.5784 9.20509 10.4703 9.13112 10.3508 9.08061C10.2314 9.03009 10.103 9.00406 9.97328 9.00406C9.78037 9.0041 9.59186 9.06171 9.43186 9.16949C9.27187 9.27728 9.14767 9.43035 9.07516 9.60912C9.00265 9.78788 8.98513 9.98422 9.02483 10.173C9.06453 10.3618 9.15965 10.5344 9.29802 10.6689L18.6292 20.0001L9.29802 29.3313C9.20499 29.4206 9.13072 29.5276 9.07956 29.646C9.02839 29.7643 9.00136 29.8917 9.00005 30.0207C8.99874 30.1497 9.02317 30.2776 9.07192 30.397C9.12067 30.5164 9.19275 30.6249 9.28394 30.7161C9.37514 30.8072 9.48361 30.8793 9.60301 30.9281C9.72241 30.9768 9.85034 31.0013 9.9793 30.9999C10.1083 30.9986 10.2357 30.9716 10.354 30.9204C10.4724 30.8693 10.5794 30.795 10.6687 30.702L19.9999 21.3708L29.3311 30.702C29.4205 30.795 29.5274 30.8693 29.6458 30.9204C29.7642 30.9716 29.8916 30.9986 30.0206 30.9999C30.1495 31.0013 30.2775 30.9768 30.3969 30.9281C30.5163 30.8793 30.6247 30.8072 30.7159 30.7161C30.8071 30.6249 30.8792 30.5164 30.928 30.397C30.9767 30.2776 31.0011 30.1497 30.9998 30.0207C30.9985 29.8917 30.9715 29.7643 30.9203 29.646C30.8692 29.5276 30.7949 29.4206 30.7019 29.3313L21.3707 20.0001L30.7019 10.6689C30.8428 10.5336 30.9396 10.3588 30.9795 10.1676C31.0195 9.97631 31.0007 9.77745 30.9256 9.59706C30.8506 9.41667 30.7228 9.26316 30.559 9.15666C30.3952 9.05017 30.203 8.99566 30.0077 9.00027Z" fill="url(#paint0_linear_3025_2251)"/>
<defs>
<linearGradient id="paint0_linear_3025_2251" x1="5.43622" y1="9" x2="33.0991" y2="23.6442" gradientUnits="userSpaceOnUse">
<stop stop-color="#CAF229"/>
<stop offset="0.5" stop-color="#C9F528"/>
<stop offset="1" stop-color="#9BF528"/>
</linearGradient>
</defs>
</svg>
