<svg width="359" height="365" viewBox="0 0 359 365" fill="none" xmlns="http://www.w3.org/2000/svg">
<path opacity="0.3" d="M166 308C244.421 308 308 244.652 308 166.5C308 88.3484 244.421 25 166 25C87.5789 25 24 88.3484 24 166.5C24 244.652 87.5789 308 166 308Z" stroke="#D9D9D9" stroke-width="2"/>
<path opacity="0.3" d="M186 341C268.84 341 336 274.07 336 191.5C336 108.93 268.84 42 186 42C103.16 42 36 108.93 36 191.5C36 274.07 103.16 341 186 341Z" stroke="#D9D9D9" stroke-width="2"/>
<path opacity="0.3" d="M209.5 298C277.711 298 333 242.479 333 174C333 105.521 277.711 50 209.5 50C141.289 50 86 105.521 86 174C86 242.479 141.289 298 209.5 298Z" stroke="#D9D9D9" stroke-width="2"/>
</svg>
