<svg width="68" height="45" viewBox="0 0 68 45" fill="none" xmlns="http://www.w3.org/2000/svg">
<g filter="url(#filter0_d_187_1979)">
<path d="M62.6326 2.46266C63.0447 1.04408 62.6326 0 60.6499 0H54.0894C52.4186 0 51.6501 0.896546 51.238 1.89523C51.238 1.89523 47.8965 10.1911 43.1738 15.5704C41.6478 17.1252 40.9461 17.6245 40.1107 17.6245C39.6986 17.6245 39.0637 17.1252 39.0637 15.7066V2.46266C39.0637 0.760361 38.5959 0 37.2147 0H26.9006C25.8535 0 25.2298 0.794408 25.2298 1.53207C25.2298 3.14359 27.5911 3.51809 27.8362 8.05757V17.9082C27.8362 20.0645 27.4575 20.4617 26.6221 20.4617C24.3944 20.4617 18.9812 12.1317 15.7733 2.59885C15.1273 0.749013 14.4924 0 12.8105 0H6.24996C4.37871 0 4 0.896546 4 1.89523C4 3.66562 6.22768 12.4609 14.3699 24.0819C19.7943 32.0146 27.4352 36.3158 34.3856 36.3158C38.5625 36.3158 39.0748 35.3625 39.0748 33.7169C39.0748 26.136 38.6961 25.4211 40.7901 25.4211C41.7592 25.4211 43.43 25.9204 47.3284 29.7449C51.7838 34.2844 52.5189 36.3158 55.0139 36.3158H61.5744C63.4457 36.3158 64.3924 35.3625 63.8467 33.4786C62.5992 29.5179 54.1674 21.3696 53.7887 20.8248C52.8196 19.5538 53.0981 18.9863 53.7887 17.8515C53.7998 17.8401 61.8083 6.35526 62.6326 2.46266Z" fill="url(#paint0_linear_187_1979)"/>
</g>
<defs>
<filter id="filter0_d_187_1979" x="0" y="0" width="68" height="44.3154" filterUnits="userSpaceOnUse" color-interpolation-filters="sRGB">
<feFlood flood-opacity="0" result="BackgroundImageFix"/>
<feColorMatrix in="SourceAlpha" type="matrix" values="0 0 0 0 0 0 0 0 0 0 0 0 0 0 0 0 0 0 127 0" result="hardAlpha"/>
<feOffset dy="4"/>
<feGaussianBlur stdDeviation="2"/>
<feComposite in2="hardAlpha" operator="out"/>
<feColorMatrix type="matrix" values="0 0 0 0 0.792157 0 0 0 0 0.94902 0 0 0 0 0.160784 0 0 0 0.25 0"/>
<feBlend mode="normal" in2="BackgroundImageFix" result="effect1_dropShadow_187_1979"/>
<feBlend mode="normal" in="SourceGraphic" in2="effect1_dropShadow_187_1979" result="shape"/>
</filter>
<linearGradient id="paint0_linear_187_1979" x1="-5.71939" y1="-3.10096e-07" x2="49.0048" y2="47.8634" gradientUnits="userSpaceOnUse">
<stop stop-color="#CAF229"/>
<stop offset="0.5" stop-color="#C9F528"/>
<stop offset="1" stop-color="#9BF528"/>
</linearGradient>
</defs>
</svg>
